<svg xmlns="http://www.w3.org/2000/svg" width="24" height="24" viewBox="0 0 24 24">
    <g fill="none" fill-rule="evenodd" stroke-linecap="round" stroke-linejoin="round">
        <g stroke="#666" stroke-width="2">
            <g>
                <g>
                    <path d="M12 4L12 19.854M4.073 11.927L19.927 11.927" transform="translate(-1812 -118) translate(580 105) translate(1232 13)"/>
                </g>
            </g>
        </g>
    </g>
</svg>
