<?xml version="1.0" encoding="utf-8"?>
<svg xmlns="http://www.w3.org/2000/svg" version="1.1" width="95" height="60" viewBox="0 0 492.1 326">
    <g>
        <rect fill="#4472C4" x="1.999987038514945" y="1.333314880022266" width="486.92901508168023" height="322.28272908159437" id="svg_1"/>
        <path fill="#ffffff" d="M72.8,136.7c1.5,1.5,3.5,2.3,5.6,2.3h63.9c2.1,0,4.1-0.8,5.6-2.3l23.9-24c1.5-1.5,2.3-3.5,2.3-5.6V67.2  c0-4.4-3.6-8-8-8H54.4c-4.4,0-8,3.6-8,8v39.9c0,2.1,0.8,4.2,2.3,5.6L72.8,136.7z M62.4,75.2h95.8v28.6L139,123.1H81.7l-19.3-19.3  V75.2z" id="svg_2"/>
        <path fill="#ffffff" d="M92.1,96.8c0.7-0.8,1.3-1.7,1.7-2.6c1.8-4-0.1-8.8-4.1-10.5c-4-1.8-8.8,0.1-10.5,4.1c-0.5,1.1-0.7,2.2-0.7,3.4  c0,1,0.2,2,0.6,3s1,1.9,1.7,2.6C83.9,99.9,88.9,99.9,92.1,96.8z" id="svg_3"/>
        <path fill="#ffffff" d="M107.3,114.5c3,1.3,6.4,0.6,8.7-1.7c0.7-0.8,1.3-1.7,1.7-2.6c0.4-0.9,0.6-2,0.6-3c0-4.4-3.6-8-8-8  c-2.1,0-4.2,0.8-5.7,2.3s-2.3,3.6-2.3,5.7s0.8,4.2,2.3,5.7C105.4,113.5,106.3,114.1,107.3,114.5z" id="svg_4"/>
        <path fill="#ffffff" d="M128.6,96.8c3.1,3.1,8.2,3.1,11.3,0c0.7-0.8,1.3-1.7,1.7-2.6c0.4-1,0.6-2,0.6-3c0-2.1-0.9-4.1-2.3-5.7  c-1.9-1.9-4.6-2.7-7.3-2.2c-0.5,0.1-1,0.3-1.4,0.5c-0.5,0.2-1,0.4-1.4,0.7c-0.4,0.3-0.8,0.6-1.2,1c-1.5,1.5-2.3,3.5-2.3,5.7  c0,1,0.2,2.1,0.6,3C127.3,95.2,127.9,96,128.6,96.8z" id="svg_5"/>
        <path fill="#ffffff" d="M216.1,286.8H248v-16h-24v-23.9h-16v31.9C208.1,283.2,211.6,286.8,216.1,286.8L216.1,286.8z" id="svg_6"/>
        <path fill="#ffffff" d="M447.6,71.2h16v-32c0-4.4-3.6-8-8-8h-32v16h24V71.2z" id="svg_7"/>
        <path fill="#ffffff" d="M224.1,47.2h24v-16h-32c-4.4,0-8,3.6-8,8v31.9h16V47.2z" id="svg_8"/>
        <path fill="#ffffff" d="M447.6,270.8h-24v16h31.9c4.4,0,8-3.6,8-8v-32h-16L447.6,270.8z" id="svg_9"/>
        <path fill="#ffffff" d="M335.9,39.2c-66.1,0-119.8,53.6-119.8,119.8s53.6,119.8,119.8,119.8S455.6,225.2,455.6,159l0,0  C455.6,92.9,402,39.3,335.9,39.2z M403.3,215.2c27.2-32.5,27.2-79.8,0-112.3l11.3-11.3c33.5,38.8,33.5,96.2,0,134.9L403.3,215.2z   M375.8,159c0,7.8-2.3,15.5-6.6,22l-11.7-11.7c3.2-6.5,3.2-14.1,0-20.5l11.7-11.7C373.5,143.6,375.8,151.2,375.8,159L375.8,159z   M295.9,159c0-7.8,2.3-15.5,6.6-22l11.7,11.7c-3.2,6.5-3.2,14.1,0,20.5L302.6,181C298.2,174.5,295.9,166.8,295.9,159L295.9,159z   M327.9,159c0-4.4,3.6-8,8-8s8,3.6,8,8s-3.6,8-8,8S327.9,163.4,327.9,159L327.9,159z M346.1,137.5c-6.5-3.2-14.1-3.2-20.5,0  l-11.7-11.7c13.3-8.9,30.7-8.9,44,0L346.1,137.5z M325.6,180.6c6.5,3.2,14.1,3.2,20.5,0l11.7,11.7c-13.3,8.9-30.7,8.9-44,0  L325.6,180.6z M369.3,114.3c-19.8-14.9-47-14.9-66.8,0l-11.4-11.4c26.2-21,63.4-21,89.6,0L369.3,114.3z M291.2,125.6  c-14.9,19.8-14.9,47,0,66.8l-11.4,11.4c-21-26.2-21-63.4,0-89.6L291.2,125.6z M302.5,203.7c19.8,14.9,47,14.9,66.8,0l11.4,11.4  c-26.2,21-63.4,21-89.6,0L302.5,203.7z M380.6,192.4c14.9-19.8,14.9-47,0-66.8l11.4-11.4c21,26.2,21,63.4,0,89.6L380.6,192.4z   M403.3,80.3L392,91.6c-32.5-27.2-79.8-27.2-112.3,0l-11.3-11.3C307.2,46.9,364.6,46.9,403.3,80.3z M257.1,91.6l11.3,11.3  c-27.2,32.5-27.2,79.8,0,112.3l-11.3,11.3C223.7,187.7,223.7,130.3,257.1,91.6z M268.4,237.7l11.3-11.2c32.5,27.2,79.8,27.2,112.3,0  l11.3,11.3C364.5,271.2,307.2,271.2,268.4,237.7z" id="svg_10"/>
        <rect fill="#ffffff" x="46.5" y="230.89999389648438" width="123.69999694824219" height="16" id="svg_11"/>

        <rect stroke="#00B050" stroke-width="8" fill-opacity="0" x="4" y="4" width="484.1" height="318"/>
    </g>
</svg>
