<svg xmlns="http://www.w3.org/2000/svg" width="60" height="60" viewBox="0 0 60 60">
    <g fill="none" fill-rule="evenodd">
        <g fill="#CC0F16" fill-rule="nonzero">
            <g>
                <g>
                    <path d="M28.07 30.79l-.563-8.407c-.11-1.691-.687-4.425.605-5.8.983-1.057 3.311-1.239 4.017.227.6 1.721.734 3.572.385 5.362l-.753 8.655c-.032.814-.21 1.617-.526 2.368-.253.496-.761.81-1.318.816-.556.005-1.07-.298-1.334-.788-.297-.78-.47-1.6-.514-2.432zm1.947 11.553c-1.384-.008-2.524-1.09-2.603-2.472-.08-1.382.929-2.587 2.303-2.753.969-.118 1.923.313 2.476 1.118.553.804.613 1.85.156 2.712-.457.863-1.356 1.4-2.332 1.395z" transform="translate(-881 -603) translate(881 603) translate(0 5)"/>
                    <path d="M53.668 50.617H6.332c-2.263-.035-4.339-1.262-5.46-3.228C-.25 45.424-.252 43.012.87 41.046L24.566 3.063c1.17-1.881 3.23-3.024 5.446-3.02 2.215.004 4.271 1.154 5.435 3.039l23.657 37.92c1.14 1.965 1.154 4.387.036 6.364-1.118 1.978-3.2 3.215-5.472 3.25zM28.179 5.257L4.486 43.242c-.355.656-.342 1.45.036 2.094.377.644 1.064 1.043 1.81 1.053h47.336c.754-.012 1.447-.42 1.82-1.076.375-.656.375-1.46 0-2.115 0 0-23.657-37.927-23.667-37.94-.396-.622-1.083-1-1.821-1s-1.425.378-1.82 1z" transform="translate(-881 -603) translate(881 603) translate(0 5)"/>
                </g>
            </g>
        </g>
    </g>
</svg>
