<?xml version="1.0" encoding="ascii"?>
<svg xmlns="http://www.w3.org/2000/svg" version="1.1" width="40" height="40" viewBox="0 0 400 400">
    <g>
        <path d="M 303.969, 96.031 293.969, 96.031 283.969, 96.031 273.969, 96.031 263.969, 96.031 253.969, 96.031 243.969, 96.031 233.969, 96.031 223.969, 96.031 213.969, 96.031 203.969, 96.031 193.969, 96.031 183.969, 96.031 173.969, 96.031 163.969, 96.031 153.969, 96.031 143.969, 96.031 133.969, 96.031 123.969, 96.031 113.969, 96.031 103.969, 96.031 96.031, 96.031 96.031, 106.031 96.031, 116.031 96.031, 126.031 96.031, 136.031 96.031, 146.031 96.031, 156.031 96.031, 166.031 96.031, 176.031 96.031, 180.000 106.031, 180.000 109.621, 180.000 109.621, 170.000 109.621, 160.000 109.621, 150.000 109.621, 140.000 109.621, 130.000 109.621, 120.000 109.621, 109.621 119.621, 109.621 129.621, 109.621 139.621, 109.621 149.621, 109.621 159.621, 109.621 169.621, 109.621 179.621, 109.621 189.621, 109.621 199.621, 109.621 209.621, 109.621 219.621, 109.621 229.621, 109.621 239.621, 109.621 249.621, 109.621 259.621, 109.621 269.621, 109.621 279.621, 109.621 290.379, 109.621 290.379, 119.621 290.379, 129.621 290.379, 139.621 290.379, 149.621 290.379, 159.621 290.379, 169.621 290.379, 179.621 290.379, 189.621 290.379, 199.621 290.379, 209.621 290.379, 219.621 290.379, 229.621 290.379, 239.621 290.379, 249.621 290.379, 259.621 290.379, 269.621 290.379, 279.621 290.379, 290.379 280.379, 290.379 270.379, 290.379 260.379, 290.379 250.379, 290.379 240.379, 290.379 230.379, 290.379 220.000, 290.379 220.000, 300.379 220.000, 303.969 230.000, 303.969 240.000, 303.969 250.000, 303.969 260.000, 303.969 270.000, 303.969 280.000, 303.969 290.000, 303.969 300.000, 303.969 303.969, 303.969 303.969, 293.969 303.969, 283.969 303.969, 273.969 303.969, 263.969 303.969, 253.969 303.969, 243.969 303.969, 233.969 303.969, 223.969 303.969, 213.969 303.969, 203.969 303.969, 193.969 303.969, 183.969 303.969, 173.969 303.969, 163.969 303.969, 153.969 303.969, 143.969 303.969, 133.969 303.969, 123.969 303.969, 113.969 303.969, 103.969 303.969, 96.031" fill="#ffffff"/>
        <path d="M 248.051, 161.822 255.122, 168.893 261.473, 175.245 263.937, 165.553 266.401, 155.861 268.865, 146.169 271.329, 136.478 273.793, 126.786 273.991, 126.009 264.299, 128.473 254.608, 130.937 244.916, 133.401 235.224, 135.865 225.533, 138.329 224.756, 138.527 231.827, 145.598 238.178, 151.949 231.107, 159.020 224.036, 166.091 216.965, 173.162 209.894, 180.233 205.592, 184.536 212.663, 191.607 215.464, 194.408 222.536, 187.337 229.607, 180.266 236.678, 173.195 243.749, 166.124 248.051, 161.822" fill="#ffffff"/>
        <path d="M 88.492, 200.000 88.492, 210.000 88.492, 220.000 88.492, 230.000 88.492, 240.000 88.492, 250.000 88.492, 260.000 88.492, 270.000 88.492, 280.000 88.492, 290.000 88.492, 300.000 88.492, 310.000 88.492, 311.508 98.492, 311.508 108.492, 311.508 118.492, 311.508 128.492, 311.508 138.492, 311.508 148.492, 311.508 158.492, 311.508 168.492, 311.508 178.492, 311.508 188.492, 311.508 198.492, 311.508 200.000, 311.508 200.000, 301.508 200.000, 291.508 200.000, 281.508 200.000, 271.508 200.000, 261.508 200.000, 251.508 200.000, 241.508 200.000, 231.508 200.000, 221.508 200.000, 211.508 200.000, 201.508 200.000, 200.000 190.000, 200.000 180.000, 200.000 170.000, 200.000 160.000, 200.000 150.000, 200.000 140.000, 200.000 130.000, 200.000 120.000, 200.000 110.000, 200.000 100.000, 200.000 90.000, 200.000 88.492, 200.000" fill="#ffffff"/>
    </g>
</svg>
