<svg xmlns="http://www.w3.org/2000/svg" width="24" height="24" viewBox="0 0 24 24">
    <g fill="none" fill-rule="evenodd">
        <g fill="#666" fill-rule="nonzero">
            <g>
                <g>
                    <g>
                        <path d="M24 13.984v-3.968l-3.254-.641c-.177-.59-.414-1.16-.707-1.702l1.815-2.723-2.804-2.804-2.723 1.815c-.542-.293-1.112-.53-1.702-.707L13.985 0h-3.97l-.64 3.254c-.59.177-1.16.414-1.702.707L4.95 2.146 2.146 4.95 3.96 7.673c-.293.542-.53 1.112-.707 1.702L0 10.015v3.97l3.254.64c.177.59.414 1.16.707 1.702L2.146 19.05l2.804 2.804 2.723-1.815c.542.293 1.112.53 1.702.707l.64 3.254h3.97l.64-3.254c.59-.177 1.16-.414 1.702-.707l2.723 1.815 2.804-2.804-1.815-2.723c.293-.542.53-1.112.707-1.702l3.254-.64zm-3.955 4.887l-1.174 1.174-2.497-1.665c-1.268.768-1.688.914-2.958 1.228l-.588 2.986h-1.656l-.588-2.986c-1.446-.357-1.846-.554-2.958-1.228L5.13 20.045 3.955 18.87l1.665-2.497c-.773-1.276-.916-1.698-1.228-2.958l-2.986-.588v-1.656l2.986-.588C4.7 9.34 4.84 8.914 5.62 7.626L3.955 5.13 5.13 3.956 7.626 5.62c1.278-.774 1.7-.917 2.958-1.228l.588-2.986h1.656l.588 2.986c1.448.358 1.848.556 2.958 1.228l2.497-1.665 1.174 1.174-1.665 2.497c.766 1.265.913 1.685 1.228 2.958l2.986.588v1.656l-2.986.588c-.358 1.448-.555 1.847-1.228 2.958l1.665 2.497z" transform="translate(-1876 -70) translate(81 65) translate(1487 1) translate(308 4)"/>
                        <path d="M12 7.078c-2.714 0-4.922 2.208-4.922 4.922 0 2.714 2.208 4.922 4.922 4.922 2.714 0 4.922-2.208 4.922-4.922 0-2.714-2.208-4.922-4.922-4.922zm0 8.438c-1.939 0-3.516-1.577-3.516-3.516S10.061 8.484 12 8.484s3.516 1.577 3.516 3.516-1.577 3.516-3.516 3.516z" transform="translate(-1876 -70) translate(81 65) translate(1487 1) translate(308 4)"/>
                    </g>
                </g>
            </g>
        </g>
    </g>
</svg>
