<svg width="88" height="88" viewBox="0 0 88 88" fill="none" xmlns="http://www.w3.org/2000/svg">
    <rect width="88" height="88" fill="#E5E5E5"/>
    <g clip-path="url(#clip0)">
        <rect width="1440" height="1521" transform="translate(-589 -247)" fill="#F2F6FA"/>
        <g filter="url(#filter0_d)">
            <rect x="-371" y="-37" width="1015" height="162" rx="5" fill="#b1b3ba"/>
        </g>
        <g clip-path="url(#clip1)">
            <mask id="path-2-outside-1" maskUnits="userSpaceOnUse" x="9.65942" y="11.7603" width="68" height="67" fill="black">
                <rect fill="white" x="9.65942" y="11.7603" width="68" height="67"/>
                <path d="M74.1228 49.9347L52.5049 43.0136C52.4534 42.3698 52.3279 41.7469 52.1349 41.1535C53.0475 40.8454 53.9887 40.5122 54.9397 40.1534C63.5405 36.9096 68.4969 33.2824 69.6706 29.3721C70.4514 26.7708 69.6197 24.1906 67.1993 21.7029C65.2899 19.7403 61.0698 16.8039 60.8909 16.6801C60.2151 16.2111 59.2888 16.3707 58.809 17.0377L45.4463 35.598C45.1022 35.5534 44.7518 35.5278 44.3956 35.5278C44.1505 35.5278 43.9081 35.5406 43.6684 35.562C43.6097 28.7295 42.7629 20.0226 39.1835 16.0728C37.7932 14.5385 36.0993 13.7603 34.1487 13.7603C32.8091 13.7603 31.3519 14.1431 29.8191 14.8978C27.9204 15.8331 25.043 17.9008 23.7539 18.8524C23.3756 19.1318 23.1329 19.3158 23.0935 19.3456C22.6844 19.6565 22.4783 20.1366 22.5 20.6145C22.5128 20.9015 22.6077 21.1877 22.7901 21.4364L36.8527 40.6163C36.6982 40.9968 36.5724 41.3915 36.4764 41.7978C31.8805 40.2998 26.1175 38.8088 21.375 38.8088C17.64 38.8088 14.9293 39.7518 13.3188 41.6113C11.8996 43.2498 11.3869 45.5155 11.7955 48.3462C12.1873 51.0558 13.8757 55.911 13.9476 56.1165C14.1639 56.737 14.7461 57.1272 15.3699 57.1272C15.5266 57.1272 15.6855 57.1028 15.8419 57.051L38.7345 49.5034C38.988 49.7495 39.2566 49.9805 39.5405 50.1923C38.7462 51.2801 37.9218 52.456 37.1109 53.6885C32.0591 61.3678 30.1815 67.2156 31.5302 71.0688C32.4279 73.6326 34.6176 75.2315 38.0385 75.8213C39.8051 76.1262 42.5948 76.1902 44.6244 76.1902C45.5051 76.1902 46.0924 76.1774 46.0924 76.1774C46.9143 76.1598 47.5706 75.4866 47.567 74.6644L47.4662 51.1996C47.9171 51.0151 48.347 50.7912 48.7535 50.5324C49.4204 51.4414 50.1296 52.3788 50.8834 53.3238C56.5775 60.4594 61.5255 64.0778 65.59 64.0778C67.5057 64.0778 70.2209 63.2586 72.277 59.3556C73.5526 56.9338 75.0431 52.0133 75.1056 51.8052C75.3436 51.018 74.9061 50.1854 74.1228 49.9347ZM44.3954 47.8408C42.0903 47.8408 40.2207 45.9715 40.2207 43.6655C40.2207 41.3595 42.0903 39.4906 44.3954 39.4906C46.7013 39.4906 48.5706 41.3595 48.5706 43.6655C48.5706 45.9716 46.7013 47.8408 44.3954 47.8408Z"/>
            </mask>
            <path d="M74.1228 49.9347L52.5049 43.0136C52.4534 42.3698 52.3279 41.7469 52.1349 41.1535C53.0475 40.8454 53.9887 40.5122 54.9397 40.1534C63.5405 36.9096 68.4969 33.2824 69.6706 29.3721C70.4514 26.7708 69.6197 24.1906 67.1993 21.7029C65.2899 19.7403 61.0698 16.8039 60.8909 16.6801C60.2151 16.2111 59.2888 16.3707 58.809 17.0377L45.4463 35.598C45.1022 35.5534 44.7518 35.5278 44.3956 35.5278C44.1505 35.5278 43.9081 35.5406 43.6684 35.562C43.6097 28.7295 42.7629 20.0226 39.1835 16.0728C37.7932 14.5385 36.0993 13.7603 34.1487 13.7603C32.8091 13.7603 31.3519 14.1431 29.8191 14.8978C27.9204 15.8331 25.043 17.9008 23.7539 18.8524C23.3756 19.1318 23.1329 19.3158 23.0935 19.3456C22.6844 19.6565 22.4783 20.1366 22.5 20.6145C22.5128 20.9015 22.6077 21.1877 22.7901 21.4364L36.8527 40.6163C36.6982 40.9968 36.5724 41.3915 36.4764 41.7978C31.8805 40.2998 26.1175 38.8088 21.375 38.8088C17.64 38.8088 14.9293 39.7518 13.3188 41.6113C11.8996 43.2498 11.3869 45.5155 11.7955 48.3462C12.1873 51.0558 13.8757 55.911 13.9476 56.1165C14.1639 56.737 14.7461 57.1272 15.3699 57.1272C15.5266 57.1272 15.6855 57.1028 15.8419 57.051L38.7345 49.5034C38.988 49.7495 39.2566 49.9805 39.5405 50.1923C38.7462 51.2801 37.9218 52.456 37.1109 53.6885C32.0591 61.3678 30.1815 67.2156 31.5302 71.0688C32.4279 73.6326 34.6176 75.2315 38.0385 75.8213C39.8051 76.1262 42.5948 76.1902 44.6244 76.1902C45.5051 76.1902 46.0924 76.1774 46.0924 76.1774C46.9143 76.1598 47.5706 75.4866 47.567 74.6644L47.4662 51.1996C47.9171 51.0151 48.347 50.7912 48.7535 50.5324C49.4204 51.4414 50.1296 52.3788 50.8834 53.3238C56.5775 60.4594 61.5255 64.0778 65.59 64.0778C67.5057 64.0778 70.2209 63.2586 72.277 59.3556C73.5526 56.9338 75.0431 52.0133 75.1056 51.8052C75.3436 51.018 74.9061 50.1854 74.1228 49.9347ZM44.3954 47.8408C42.0903 47.8408 40.2207 45.9715 40.2207 43.6655C40.2207 41.3595 42.0903 39.4906 44.3954 39.4906C46.7013 39.4906 48.5706 41.3595 48.5706 43.6655C48.5706 45.9716 46.7013 47.8408 44.3954 47.8408Z" fill="#385361"/>
            <path d="M74.1228 49.9347L52.5049 43.0136C52.4534 42.3698 52.3279 41.7469 52.1349 41.1535C53.0475 40.8454 53.9887 40.5122 54.9397 40.1534C63.5405 36.9096 68.4969 33.2824 69.6706 29.3721C70.4514 26.7708 69.6197 24.1906 67.1993 21.7029C65.2899 19.7403 61.0698 16.8039 60.8909 16.6801C60.2151 16.2111 59.2888 16.3707 58.809 17.0377L45.4463 35.598C45.1022 35.5534 44.7518 35.5278 44.3956 35.5278C44.1505 35.5278 43.9081 35.5406 43.6684 35.562C43.6097 28.7295 42.7629 20.0226 39.1835 16.0728C37.7932 14.5385 36.0993 13.7603 34.1487 13.7603C32.8091 13.7603 31.3519 14.1431 29.8191 14.8978C27.9204 15.8331 25.043 17.9008 23.7539 18.8524C23.3756 19.1318 23.1329 19.3158 23.0935 19.3456C22.6844 19.6565 22.4783 20.1366 22.5 20.6145C22.5128 20.9015 22.6077 21.1877 22.7901 21.4364L36.8527 40.6163C36.6982 40.9968 36.5724 41.3915 36.4764 41.7978C31.8805 40.2998 26.1175 38.8088 21.375 38.8088C17.64 38.8088 14.9293 39.7518 13.3188 41.6113C11.8996 43.2498 11.3869 45.5155 11.7955 48.3462C12.1873 51.0558 13.8757 55.911 13.9476 56.1165C14.1639 56.737 14.7461 57.1272 15.3699 57.1272C15.5266 57.1272 15.6855 57.1028 15.8419 57.051L38.7345 49.5034C38.988 49.7495 39.2566 49.9805 39.5405 50.1923C38.7462 51.2801 37.9218 52.456 37.1109 53.6885C32.0591 61.3678 30.1815 67.2156 31.5302 71.0688C32.4279 73.6326 34.6176 75.2315 38.0385 75.8213C39.8051 76.1262 42.5948 76.1902 44.6244 76.1902C45.5051 76.1902 46.0924 76.1774 46.0924 76.1774C46.9143 76.1598 47.5706 75.4866 47.567 74.6644L47.4662 51.1996C47.9171 51.0151 48.347 50.7912 48.7535 50.5324C49.4204 51.4414 50.1296 52.3788 50.8834 53.3238C56.5775 60.4594 61.5255 64.0778 65.59 64.0778C67.5057 64.0778 70.2209 63.2586 72.277 59.3556C73.5526 56.9338 75.0431 52.0133 75.1056 51.8052C75.3436 51.018 74.9061 50.1854 74.1228 49.9347ZM44.3954 47.8408C42.0903 47.8408 40.2207 45.9715 40.2207 43.6655C40.2207 41.3595 42.0903 39.4906 44.3954 39.4906C46.7013 39.4906 48.5706 41.3595 48.5706 43.6655C48.5706 45.9716 46.7013 47.8408 44.3954 47.8408Z" stroke="#385361" stroke-width="4" mask="url(#path-2-outside-1)"/>
            <path d="M86.3482 0H1.65371C0.741068 0 0.000976562 0.740092 0.000976562 1.65302V86.3473C0.000976562 87.2602 0.741068 88 1.65371 88H86.348C87.2606 88 88.0007 87.2602 88.0007 86.3473V1.65302C88.001 0.740092 87.2609 0 86.3482 0ZM4.04912 6.75357C4.04912 5.25973 5.26041 4.04814 6.75483 4.04814C8.24983 4.04814 9.46054 5.25973 9.46054 6.75357C9.46054 8.24856 8.24983 9.45928 6.75483 9.45928C5.26041 9.45914 4.04912 8.24842 4.04912 6.75357ZM44.001 79.3536C24.4763 79.3536 8.64712 63.5252 8.64712 44C8.64712 24.4748 24.4763 8.64643 44.001 8.64643C63.5253 8.64643 79.3554 24.4748 79.3554 44C79.3554 63.5252 63.5253 79.3536 44.001 79.3536ZM81.2477 83.9521C79.7527 83.9521 78.542 82.7406 78.542 81.2464C78.542 79.7514 79.7527 78.541 81.2477 78.541C82.741 78.541 83.9528 79.7517 83.9528 81.2464C83.9528 82.7406 82.7412 83.9521 81.2477 83.9521Z" fill="#385361"/>
            <mask id="path-4-outside-2" maskUnits="userSpaceOnUse" x="9.65845" y="11.7603" width="68" height="67" fill="black">
                <rect fill="white" x="9.65845" y="11.7603" width="68" height="67"/>
                <path d="M74.1219 49.9347L52.5039 43.0136C52.4524 42.3698 52.3269 41.7469 52.1339 41.1535C53.0466 40.8454 53.9877 40.5122 54.9387 40.1534C63.5396 36.9096 68.4959 33.2824 69.6697 29.3721C70.4504 26.7708 69.6188 24.1906 67.1983 21.7029C65.2889 19.7403 61.0688 16.8039 60.8899 16.6801C60.2141 16.2111 59.2878 16.3707 58.808 17.0377L45.4454 35.598C45.1013 35.5534 44.7508 35.5278 44.3947 35.5278C44.1495 35.5278 43.9071 35.5406 43.6674 35.562C43.6087 28.7295 42.7619 20.0226 39.1825 16.0728C37.7922 14.5385 36.0984 13.7603 34.1477 13.7603C32.8081 13.7603 31.351 14.1431 29.8182 14.8978C27.9194 15.8331 25.042 17.9008 23.7529 18.8524C23.3746 19.1318 23.1319 19.3158 23.0925 19.3456C22.6834 19.6565 22.4773 20.1366 22.4991 20.6145C22.5119 20.9015 22.6068 21.1877 22.7891 21.4364L36.8517 40.6163C36.6973 40.9968 36.5714 41.3915 36.4754 41.7978C31.8795 40.2998 26.1165 38.8088 21.374 38.8088C17.6391 38.8088 14.9283 39.7518 13.3179 41.6113C11.8986 43.2498 11.3859 45.5155 11.7945 48.3462C12.1864 51.0558 13.8748 55.911 13.9467 56.1165C14.1629 56.737 14.7451 57.1272 15.3689 57.1272C15.5256 57.1272 15.6845 57.1028 15.841 57.051L38.7335 49.5034C38.987 49.7495 39.2556 49.9805 39.5396 50.1923C38.7453 51.2801 37.9208 52.456 37.1099 53.6885C32.0581 61.3678 30.1805 67.2156 31.5293 71.0688C32.427 73.6326 34.6166 75.2315 38.0375 75.8213C39.8041 76.1262 42.5938 76.1902 44.6234 76.1902C45.5042 76.1902 46.0914 76.1774 46.0914 76.1774C46.9133 76.1598 47.5696 75.4866 47.566 74.6644L47.4652 51.1996C47.9161 51.0151 48.346 50.7912 48.7525 50.5324C49.4194 51.4414 50.1286 52.3788 50.8824 53.3238C56.5765 60.4594 61.5245 64.0778 65.589 64.0778C67.5047 64.0778 70.2199 63.2586 72.276 59.3556C73.5516 56.9338 75.0421 52.0133 75.1047 51.8052C75.3426 51.018 74.9051 50.1854 74.1219 49.9347ZM44.3944 47.8408C42.0893 47.8408 40.2197 45.9715 40.2197 43.6655C40.2197 41.3595 42.0893 39.4906 44.3944 39.4906C46.7004 39.4906 48.5696 41.3595 48.5696 43.6655C48.5696 45.9716 46.7004 47.8408 44.3944 47.8408Z"/>
            </mask>
            <path d="M74.1219 49.9347L52.5039 43.0136C52.4524 42.3698 52.3269 41.7469 52.1339 41.1535C53.0466 40.8454 53.9877 40.5122 54.9387 40.1534C63.5396 36.9096 68.4959 33.2824 69.6697 29.3721C70.4504 26.7708 69.6188 24.1906 67.1983 21.7029C65.2889 19.7403 61.0688 16.8039 60.8899 16.6801C60.2141 16.2111 59.2878 16.3707 58.808 17.0377L45.4454 35.598C45.1013 35.5534 44.7508 35.5278 44.3947 35.5278C44.1495 35.5278 43.9071 35.5406 43.6674 35.562C43.6087 28.7295 42.7619 20.0226 39.1825 16.0728C37.7922 14.5385 36.0984 13.7603 34.1477 13.7603C32.8081 13.7603 31.351 14.1431 29.8182 14.8978C27.9194 15.8331 25.042 17.9008 23.7529 18.8524C23.3746 19.1318 23.1319 19.3158 23.0925 19.3456C22.6834 19.6565 22.4773 20.1366 22.4991 20.6145C22.5119 20.9015 22.6068 21.1877 22.7891 21.4364L36.8517 40.6163C36.6973 40.9968 36.5714 41.3915 36.4754 41.7978C31.8795 40.2998 26.1165 38.8088 21.374 38.8088C17.6391 38.8088 14.9283 39.7518 13.3179 41.6113C11.8986 43.2498 11.3859 45.5155 11.7945 48.3462C12.1864 51.0558 13.8748 55.911 13.9467 56.1165C14.1629 56.737 14.7451 57.1272 15.3689 57.1272C15.5256 57.1272 15.6845 57.1028 15.841 57.051L38.7335 49.5034C38.987 49.7495 39.2556 49.9805 39.5396 50.1923C38.7453 51.2801 37.9208 52.456 37.1099 53.6885C32.0581 61.3678 30.1805 67.2156 31.5293 71.0688C32.427 73.6326 34.6166 75.2315 38.0375 75.8213C39.8041 76.1262 42.5938 76.1902 44.6234 76.1902C45.5042 76.1902 46.0914 76.1774 46.0914 76.1774C46.9133 76.1598 47.5696 75.4866 47.566 74.6644L47.4652 51.1996C47.9161 51.0151 48.346 50.7912 48.7525 50.5324C49.4194 51.4414 50.1286 52.3788 50.8824 53.3238C56.5765 60.4594 61.5245 64.0778 65.589 64.0778C67.5047 64.0778 70.2199 63.2586 72.276 59.3556C73.5516 56.9338 75.0421 52.0133 75.1047 51.8052C75.3426 51.018 74.9051 50.1854 74.1219 49.9347ZM44.3944 47.8408C42.0893 47.8408 40.2197 45.9715 40.2197 43.6655C40.2197 41.3595 42.0893 39.4906 44.3944 39.4906C46.7004 39.4906 48.5696 41.3595 48.5696 43.6655C48.5696 45.9716 46.7004 47.8408 44.3944 47.8408Z" fill="#385361"/>
            <path d="M74.1219 49.9347L52.5039 43.0136C52.4524 42.3698 52.3269 41.7469 52.1339 41.1535C53.0466 40.8454 53.9877 40.5122 54.9387 40.1534C63.5396 36.9096 68.4959 33.2824 69.6697 29.3721C70.4504 26.7708 69.6188 24.1906 67.1983 21.7029C65.2889 19.7403 61.0688 16.8039 60.8899 16.6801C60.2141 16.2111 59.2878 16.3707 58.808 17.0377L45.4454 35.598C45.1013 35.5534 44.7508 35.5278 44.3947 35.5278C44.1495 35.5278 43.9071 35.5406 43.6674 35.562C43.6087 28.7295 42.7619 20.0226 39.1825 16.0728C37.7922 14.5385 36.0984 13.7603 34.1477 13.7603C32.8081 13.7603 31.351 14.1431 29.8182 14.8978C27.9194 15.8331 25.042 17.9008 23.7529 18.8524C23.3746 19.1318 23.1319 19.3158 23.0925 19.3456C22.6834 19.6565 22.4773 20.1366 22.4991 20.6145C22.5119 20.9015 22.6068 21.1877 22.7891 21.4364L36.8517 40.6163C36.6973 40.9968 36.5714 41.3915 36.4754 41.7978C31.8795 40.2998 26.1165 38.8088 21.374 38.8088C17.6391 38.8088 14.9283 39.7518 13.3179 41.6113C11.8986 43.2498 11.3859 45.5155 11.7945 48.3462C12.1864 51.0558 13.8748 55.911 13.9467 56.1165C14.1629 56.737 14.7451 57.1272 15.3689 57.1272C15.5256 57.1272 15.6845 57.1028 15.841 57.051L38.7335 49.5034C38.987 49.7495 39.2556 49.9805 39.5396 50.1923C38.7453 51.2801 37.9208 52.456 37.1099 53.6885C32.0581 61.3678 30.1805 67.2156 31.5293 71.0688C32.427 73.6326 34.6166 75.2315 38.0375 75.8213C39.8041 76.1262 42.5938 76.1902 44.6234 76.1902C45.5042 76.1902 46.0914 76.1774 46.0914 76.1774C46.9133 76.1598 47.5696 75.4866 47.566 74.6644L47.4652 51.1996C47.9161 51.0151 48.346 50.7912 48.7525 50.5324C49.4194 51.4414 50.1286 52.3788 50.8824 53.3238C56.5765 60.4594 61.5245 64.0778 65.589 64.0778C67.5047 64.0778 70.2199 63.2586 72.276 59.3556C73.5516 56.9338 75.0421 52.0133 75.1047 51.8052C75.3426 51.018 74.9051 50.1854 74.1219 49.9347ZM44.3944 47.8408C42.0893 47.8408 40.2197 45.9715 40.2197 43.6655C40.2197 41.3595 42.0893 39.4906 44.3944 39.4906C46.7004 39.4906 48.5696 41.3595 48.5696 43.6655C48.5696 45.9716 46.7004 47.8408 44.3944 47.8408Z" stroke="#385361" stroke-width="4" mask="url(#path-4-outside-2)"/>
            <path d="M86.3473 0H1.65273C0.740091 0 0 0.740092 0 1.65302V86.3473C0 87.2602 0.740091 88 1.65273 88H86.347C87.2596 88 87.9997 87.2602 87.9997 86.3473V1.65302C88 0.740092 87.2599 0 86.3473 0ZM4.04814 6.75357C4.04814 5.25973 5.25944 4.04814 6.75386 4.04814C8.24885 4.04814 9.45957 5.25973 9.45957 6.75357C9.45957 8.24856 8.24885 9.45928 6.75386 9.45928C5.25944 9.45914 4.04814 8.24842 4.04814 6.75357ZM44 79.3536C24.4754 79.3536 8.64614 63.5252 8.64614 44C8.64614 24.4748 24.4754 8.64643 44 8.64643C63.5243 8.64643 79.3544 24.4748 79.3544 44C79.3544 63.5252 63.5243 79.3536 44 79.3536ZM81.2467 83.9521C79.7517 83.9521 78.541 82.7406 78.541 81.2464C78.541 79.7514 79.7517 78.541 81.2467 78.541C82.74 78.541 83.9519 79.7517 83.9519 81.2464C83.9519 82.7406 82.7403 83.9521 81.2467 83.9521Z" fill="#385361"/>
            <circle cx="44" cy="44" r="6" fill="#b1b3ba"/>
        </g>
    </g>
    <defs>
        <filter id="filter0_d" x="-386" y="-50" width="1045" height="192" filterUnits="userSpaceOnUse" color-interpolation-filters="sRGB">
            <feFlood flood-opacity="0" result="BackgroundImageFix"/>
            <feColorMatrix in="SourceAlpha" type="matrix" values="0 0 0 0 0 0 0 0 0 0 0 0 0 0 0 0 0 0 127 0"/>
            <feOffset dy="2"/>
            <feGaussianBlur stdDeviation="7.5"/>
            <feColorMatrix type="matrix" values="0 0 0 0 0.371875 0 0 0 0 0.397173 0 0 0 0 0.495833 0 0 0 0.2 0"/>
            <feBlend mode="normal" in2="BackgroundImageFix" result="effect1_dropShadow"/>
            <feBlend mode="normal" in="SourceGraphic" in2="effect1_dropShadow" result="shape"/>
        </filter>
        <clipPath id="clip0">
            <rect width="1440" height="1521" fill="white" transform="translate(-589 -247)"/>
        </clipPath>
        <clipPath id="clip1">
            <rect width="88" height="88" fill="white"/>
        </clipPath>
    </defs>
</svg>
