<?xml version="1.0" encoding="utf-8"?>
<svg xmlns="http://www.w3.org/2000/svg" version="1.1" width="60" height="60" viewBox="0 0 512 512">
    <g>
        <path fill="#4472C4" d="M420.47746237701534,136.14913895753872 c0,-74.61479841209037 -60.63434144645659,-135.24913985854695 -135.24913985854695,-135.24913985854695 h-30.003003150966865 c-8.325440664927976,0 -15.080043468548789,6.754602803620812 -15.080043468548789,15.080043468548789 c0,0 0,0 0,0 v125.35286133231182 c-47.12513583921496,-58.12100086836512 -132.26454792206334,-66.91769289168526 -190.3855487904285,-19.949640838601002 C18.028802310119488,147.1450039866889 -0.3500006671743345,185.63053158871443 -0.3500006671743345,226.47231598270074 v29.845919364836146 c0,8.325440664927976 6.754602803620812,15.080043468548789 15.080043468548789,15.080043468548789 c0,0 0,0 0,0 h125.35286133231182 c-58.12100086836512,47.12513583921496 -66.91769289168526,132.26454792206334 -19.949640838601002,190.3855487904285 c25.6046571393068,31.730924798404743 64.24726852746308,50.10972777569858 105.08905292144938,50.10972777569858 h30.003003150966865 c8.325440664927976,0 15.080043468548789,-6.754602803620812 15.080043468548789,-15.080043468548789 l0,0 v-125.35286133231182 c47.12513583921496,58.12100086836512 132.26454792206334,66.91769289168526 190.3855487904285,19.949640838601002 c31.730924798404743,-25.6046571393068 50.10972777569858,-64.24726852746308 50.10972777569858,-105.08905292144938 V256.31823534753687 c0,-8.325440664927976 -6.754602803620812,-15.080043468548789 -15.080043468548789,-15.080043468548789 l0,0 h-125.35286133231182 C402.09865939972144,215.6335347396813 420.47746237701534,176.99092335152503 420.47746237701534,136.14913895753872 zM258.0528275178544,301.24419818092184 c-24.819238208653214,1.570837861307166 -46.339716908561385,-17.122132688248104 -47.91055476986855,-41.94137089690132 s17.122132688248104,-46.339716908561385 41.94137089690132,-47.91055476986855 s46.339716908561385,17.122132688248104 47.91055476986855,41.94137089690132 c0,0.9425027167842998 0.15708378613071675,2.0420892196993154 0.15708378613071675,2.9845919364836146 C299.9941984147557,280.0378870532751 281.61539543746187,299.6733603196147 258.0528275178544,301.24419818092184 z"/>

        <rect stroke="#000000" stroke-width="10" fill-opacity="0" x="5" y="5" width="502" height="502"/>
    </g>
</svg>
