<svg width="100" height="46" viewBox="0 0 50 23" fill="none" xmlns="http://www.w3.org/2000/svg">
    <path d="M47.3958 15C47.0163 15 46.7083 15.308 46.7083 15.6875V19.8125C46.7083 20.4441 46.1941 20.9583 45.5625 20.9583H38.6875C38.308 20.9583 38 21.2663 38 21.6458C38 22.0253 38.308 22.3333 38.6875 22.3333H45.5625C46.9531 22.3333 48.0833 21.2031 48.0833 19.8125V15.6875C48.0833 15.308 47.7753 15 47.3958 15Z" fill="#385361"/>
    <path d="M47.3958 15C47.2198 15 47.0438 15.0669 46.91 15.2017L45.3058 16.8058C45.1097 17.002 45.0501 17.2981 45.1564 17.5547C45.2627 17.8114 45.5139 17.9791 45.7917 17.9791H49C49.2778 17.9791 49.5289 17.8114 49.6353 17.5547C49.7416 17.2981 49.6829 17.002 49.4858 16.8058L47.8817 15.2017C47.7478 15.0669 47.5718 15 47.3958 15Z" fill="#385361"/>
    <path d="M9.16673 0H4.12507C2.73449 0 1.60424 1.13025 1.60424 2.52083V6.64582C1.60424 7.02532 1.91224 7.33332 2.29174 7.33332C2.67124 7.33332 2.97924 7.02532 2.97924 6.64582V2.52083C2.97924 1.88925 3.49349 1.375 4.12507 1.375H9.16673C9.54623 1.375 9.85423 1.067 9.85423 0.687499C9.85423 0.307999 9.54623 0 9.16673 0Z" fill="#385361"/>
    <path d="M3.8959 4.3541H0.68757C0.40982 4.3541 0.158654 4.52185 0.0523203 4.77852C-0.054013 5.03518 0.00465366 5.33127 0.201737 5.52743L1.8059 7.13159C2.07449 7.40018 2.5099 7.40018 2.77849 7.13159L4.38265 5.52743C4.57882 5.33127 4.6384 5.03518 4.53207 4.77852C4.42574 4.52185 4.17365 4.3541 3.8959 4.3541Z" fill="#385361"/>
    <path d="M40.9546 5H9.04543C8.57528 5 8.12438 5.18677 7.79193 5.51922C7.45947 5.85167 7.27271 6.30257 7.27271 6.77273V13.8636C7.27271 14.3338 7.45947 14.7847 7.79193 15.1172C8.12438 15.4496 8.57528 15.6364 9.04543 15.6364V16.2273C9.04543 16.6974 9.2322 17.1483 9.56465 17.4808C9.89711 17.8132 10.348 18 10.8182 18H39.1818C39.652 18 40.1029 17.8132 40.4353 17.4808C40.7678 17.1483 40.9546 16.6974 40.9546 16.2273V15.6364C41.4247 15.6364 41.8756 15.4496 42.2081 15.1172C42.5405 14.7847 42.7273 14.3338 42.7273 13.8636V6.77273C42.7273 6.30257 42.5405 5.85167 42.2081 5.51922C41.8756 5.18677 41.4247 5 40.9546 5ZM39.7727 16.2273C39.7727 16.384 39.7105 16.5343 39.5997 16.6451C39.4888 16.7559 39.3385 16.8182 39.1818 16.8182H10.8182C10.6614 16.8182 10.5111 16.7559 10.4003 16.6451C10.2895 16.5343 10.2273 16.384 10.2273 16.2273V15.6364H39.7727V16.2273ZM41.5455 13.8636C41.5455 14.0204 41.4832 14.1707 41.3724 14.2815C41.2616 14.3923 41.1113 14.4546 40.9546 14.4546H9.04543C8.88872 14.4546 8.73841 14.3923 8.6276 14.2815C8.51678 14.1707 8.45452 14.0204 8.45452 13.8636V6.77273C8.45452 6.61601 8.51678 6.46571 8.6276 6.35489C8.73841 6.24408 8.88872 6.18182 9.04543 6.18182H40.9546C41.1113 6.18182 41.2616 6.24408 41.3724 6.35489C41.4832 6.46571 41.5455 6.61601 41.5455 6.77273V13.8636Z" fill="#385361"/>
    <path d="M14.3636 8.54541C14.3636 8.23197 14.2391 7.93137 14.0175 7.70973C13.7958 7.4881 13.4952 7.36359 13.1818 7.36359H12C11.6866 7.36359 11.386 7.4881 11.1643 7.70973C10.9427 7.93137 10.8182 8.23197 10.8182 8.54541C10.5047 8.54541 10.2041 8.66992 9.9825 8.89155C9.76087 9.11318 9.63635 9.41379 9.63635 9.72722V12.0909C9.63635 12.4043 9.76087 12.7049 9.9825 12.9265C10.2041 13.1482 10.5047 13.2727 10.8182 13.2727H14.3636C14.6771 13.2727 14.9777 13.1482 15.1993 12.9265C15.4209 12.7049 15.5455 12.4043 15.5455 12.0909V9.72722C15.5455 9.41379 15.4209 9.11318 15.1993 8.89155C14.9777 8.66992 14.6771 8.54541 14.3636 8.54541ZM14.3636 12.0909H10.8182V9.72722H11.4091C11.5658 9.72722 11.7161 9.66497 11.8269 9.55415C11.9377 9.44333 12 9.29303 12 9.13631V8.54541H13.1818V9.13631C13.1818 9.29303 13.2441 9.44333 13.3549 9.55415C13.4657 9.66497 13.616 9.72722 13.7727 9.72722H14.3636V12.0909Z" fill="#385361"/>
    <path d="M22.6363 8.54541C22.6363 8.23197 22.5118 7.93137 22.2902 7.70973C22.0686 7.4881 21.768 7.36359 21.4545 7.36359H20.2727C19.9593 7.36359 19.6587 7.4881 19.437 7.70973C19.2154 7.93137 19.0909 8.23197 19.0909 8.54541C18.7774 8.54541 18.4768 8.66992 18.2552 8.89155C18.0336 9.11318 17.9091 9.41379 17.9091 9.72722V12.0909C17.9091 12.4043 18.0336 12.7049 18.2552 12.9265C18.4768 13.1482 18.7774 13.2727 19.0909 13.2727H22.6363C22.9498 13.2727 23.2504 13.1482 23.472 12.9265C23.6936 12.7049 23.8182 12.4043 23.8182 12.0909V9.72722C23.8182 9.41379 23.6936 9.11318 23.472 8.89155C23.2504 8.66992 22.9498 8.54541 22.6363 8.54541ZM22.6363 12.0909H19.0909V9.72722H19.6818C19.8385 9.72722 19.9888 9.66497 20.0996 9.55415C20.2104 9.44333 20.2727 9.29303 20.2727 9.13631V8.54541H21.4545V9.13631C21.4545 9.29303 21.5168 9.44333 21.6276 9.55415C21.7384 9.66497 21.8887 9.72722 22.0454 9.72722H22.6363V12.0909Z" fill="#385361"/>
    <path d="M30.909 8.54541C30.909 8.23197 30.7845 7.93137 30.5629 7.70973C30.3413 7.4881 30.0407 7.36359 29.7272 7.36359H28.5454C28.232 7.36359 27.9314 7.4881 27.7097 7.70973C27.4881 7.93137 27.3636 8.23197 27.3636 8.54541C27.0501 8.54541 26.7495 8.66992 26.5279 8.89155C26.3063 9.11318 26.1818 9.41379 26.1818 9.72722V12.0909C26.1818 12.4043 26.3063 12.7049 26.5279 12.9265C26.7495 13.1482 27.0501 13.2727 27.3636 13.2727H30.909C31.2225 13.2727 31.5231 13.1482 31.7447 12.9265C31.9663 12.7049 32.0909 12.4043 32.0909 12.0909V9.72722C32.0909 9.41379 31.9663 9.11318 31.7447 8.89155C31.5231 8.66992 31.2225 8.54541 30.909 8.54541ZM30.909 12.0909H27.3636V9.72722H27.9545C28.1112 9.72722 28.2615 9.66497 28.3723 9.55415C28.4831 9.44333 28.5454 9.29303 28.5454 9.13631V8.54541H29.7272V9.13631C29.7272 9.29303 29.7895 9.44333 29.9003 9.55415C30.0111 9.66497 30.1614 9.72722 30.3181 9.72722H30.909V12.0909Z" fill="#385361"/>
    <path d="M39.1819 8.54541C39.1819 8.23197 39.0574 7.93137 38.8357 7.70973C38.6141 7.4881 38.3135 7.36359 38 7.36359H36.8182C36.5048 7.36359 36.2042 7.4881 35.9826 7.70973C35.7609 7.93137 35.6364 8.23197 35.6364 8.54541C35.323 8.54541 35.0224 8.66992 34.8007 8.89155C34.5791 9.11318 34.4546 9.41379 34.4546 9.72722V12.0909C34.4546 12.4043 34.5791 12.7049 34.8007 12.9265C35.0224 13.1482 35.323 13.2727 35.6364 13.2727H39.1819C39.4953 13.2727 39.7959 13.1482 40.0175 12.9265C40.2392 12.7049 40.3637 12.4043 40.3637 12.0909V9.72722C40.3637 9.41379 40.2392 9.11318 40.0175 8.89155C39.7959 8.66992 39.4953 8.54541 39.1819 8.54541ZM39.1819 12.0909H35.6364V9.72722H36.2273C36.384 9.72722 36.5343 9.66497 36.6452 9.55415C36.756 9.44333 36.8182 9.29303 36.8182 9.13631V8.54541H38V9.13631C38 9.29303 38.0623 9.44333 38.1731 9.55415C38.2839 9.66497 38.4342 9.72722 38.591 9.72722H39.1819V12.0909Z" fill="#385361"/>
</svg>
