{
    "/apis/*": {
        "target": "http://ec2-13-52-250-135.us-west-1.compute.amazonaws.com:32003",
        "secure": false
    },
    "/apis/scope.ws.io/v1/": {
        "target": "http://ec2-13-52-250-135.us-west-1.compute.amazonaws.com:32003",
        "secure": false
    },
    "/nlp/": {
        "target": "http://ec2-13-52-250-135.us-west-1.compute.amazonaws.com:32003",
        "secure": false
    },
    "/api/v1/namespaces": {
        "target": "http://ec2-13-52-250-135.us-west-1.compute.amazonaws.com:32003",
        "secure": false
    },
    "/api/v1/*": {
        "target": "http://ec2-13-52-250-135.us-west-1.compute.amazonaws.com:32003",
        "secure": false
    },
    "/query": {
        "target": "http://ec2-13-52-250-135.us-west-1.compute.amazonaws.com:32003",
        "secure": false
    },
    "/query_range": {
        "target": "http://ec2-13-52-250-135.us-west-1.compute.amazonaws.com:32003",
        "secure": false
    },
    "/files/*": {
    	"target": "http://ec2-13-52-250-135.us-west-1.compute.amazonaws.com:32003",
    	"secure": false
    }
}
