<svg xmlns="http://www.w3.org/2000/svg" width="28" height="24.5" viewBox="0 0 28 24.5">
  <g id="_3d_1_" data-name="3d (1)" transform="translate(0 -1)" opacity="0.6">
    <path id="Path_13" data-name="Path 13" d="M14.6,18.826a1,1,0,0,0-1.6.8v.915c-.819-.045-1.619-.105-2.377-.189C4.123,19.682,2,18.1,2,17.626c0-.144.439-.823,2.571-1.532a1,1,0,0,0,.769-.975,1.026,1.026,0,0,0-1.317-.951C1.353,15.042,0,16.2,0,17.626c0,3.288,7.285,4.392,10.411,4.715.827.091,1.695.157,2.589.205v1.08a1,1,0,0,0,1.6.8l2.667-2a1,1,0,0,0,0-1.6Z" transform="translate(0 0.874)" fill="#f4f4f4"/>
    <path id="Path_14" data-name="Path 14" d="M23.083,14.169a1,1,0,1,0-.62,1.9c2.163.7,2.649,1.376,2.649,1.556,0,.591-2.743,2.237-9.531,2.8a1,1,0,1,0,.167,1.993c3.416-.288,11.364-1.327,11.364-4.8,0-1.423-1.356-2.587-4.029-3.457Z" transform="translate(0.888 0.873)" fill="#f4f4f4"/>
    <path id="Path_15" data-name="Path 15" d="M12.333,1l7.333,4L12.333,9,5,5Z" transform="translate(1.667 0)" fill="#f4f4f4"/>
    <path id="Path_16" data-name="Path 16" d="M13,9.6v7.765l8-3.428V6.176Z" transform="translate(1.444 0.288)" fill="#f4f4f4"/>
    <path id="Path_17" data-name="Path 17" d="M13,9.6,5,6.176v7.765l8,3.428Z" transform="translate(0.556 0.288)" fill="#f4f4f4"/>
  </g>
</svg>
