<svg xmlns="http://www.w3.org/2000/svg" width="24" height="16" viewBox="0 0 24 16">
  <g id="download" transform="translate(0 -85.333)" opacity="0.6">
    <g id="Group_24948" data-name="Group 24948" transform="translate(0 85.333)">
      <path id="Path_313" data-name="Path 313" d="M19.355,91.368a7.5,7.5,0,0,0-14.005-2A6,6,0,0,0,6,101.333H19a4.988,4.988,0,0,0,.355-9.965ZM12,99.333l-5-5h3v-4h4v4h3Z" transform="translate(0 -85.333)" fill="#f4f4f4"/>
    </g>
  </g>
</svg>
