{
  "x": 51,
  "y": 7,
  "rows": 9,
  "cols": 45,
  "id": "fac5877c-3b6b-4d87-88ae-4256eca1bf5d",
  "title": "Authorization Rule hits",
  "chartType": "bar",
  "chartVariant": "vertical",
  "chartQueries": [
    {
      "color": "auto",
      "query": {
        "apiVersion": "fanta.ws.io/v1",
        "kind": "ChartQuery",
        "metadata": {
          "name": "authorization-rule-hits",
          "namespace": "endpoint-security"
        },
        "spec": {
          "query_info": {
            "base_url": "metrics/{{APIGROUP}}/v1/authorizationrules?includeSubtree=true&query=sum(round(increase(rule_hits[{{DURATION}}])))by(objname)",
            "display_label": "objname",
            "all_data_url": "metrics/{{APIGROUP}}/v1/authorizationrules?includeSubtree=true&query=rule_hits",
            "filtered_data_url": "metrics/{{APIGROUP}}/v1/authorizationrules?includeSubtree=true&query=rule_hits{objname={{OBJECTNAME}}}",
            "query_category": "discrete-data",
            "title": "Authorization Rule Hits"
          },
          "template": {
            "enable": "TemplateEnable_ExList"
          }
        }
      }
    }
  ],
  "privilege": "endpoint-security",
  "colorPalette": "dark",
  "opacity": 1,
  "resizeEnabled": false,
  "dragEnabled": false
}
