{
  "x": 0,
  "y": 25,
  "rows": 12,
  "cols": 48,
  "id": "e31aa8b5-7900-4b5d-94ab-70007d17f3cd",
  "title": "Endpoint Count",
  "chartType": "graph",
  "chartVariant": "line",
  "chartQueries": [
    {
      "color": "green",
      "showOnAxis": true,
      "query": {
        "apiVersion": "fanta.ws.io/v1",
        "kind": "ChartQuery",
        "metadata": {
          "name": "epcount",
          "namespace": "endpoint"
        },
        "spec": {
          "base": {},
          "query_info": {
            "base_url": "metrics/{{APIGROUP}}/v1/endpoints?includeSubtree=true&range=true&query=count(endpoint_state{status.connectedDeviceName=\"{{OBJNAME}}\"})&start={{STARTTIME}}&end={{ENDTIME}}&step={{STEP}}",
            "query_category": "time-series",
            "title": "Endpoint Count",
            "all_data_url": "metrics/{{APIGROUP}}/v1/endpoints?includeSubtree=true&range=true&query=endpoint_state{status.connectedDeviceName=\"{{OBJNAME}}\"}&start={{STARTTIME}}&end={{ENDTIME}}&step={{STEP}}"
          }
        }
      }
    }
  ],
  "datapointCount": 50,
  "privilege": "network",
  "colorPalette": "fuse",
  "opacity": 0.8
}
