{
    "x": 0,
    "y": 25,
    "rows": 12,
    "cols": 48,
    "id": "e31aa8b5-7900-4b5d-94ab-70007d17f3cd",
    "title": "CPU and Memory",
    "chartType": "graph",
    "chartVariant": "line",
    "chartQueries": [
        {
            "color": "green",
            "showOnAxis": true,
            "query": {
                "apiVersion": "fanta.ws.io/v1",
                "kind": "ChartQuery",
                "metadata": {
                    "name": "cpu",
                    "namespace": "network"
                },
                "spec": {
                    "base": {},
                    "query_info": {
                        "base_url": "metrics/{{APIGROUP}}/v1/devices/{{OBJNAME}}?range=true&query=avg(cpu_used_percentage)&start={{STARTTIME}}&end={{ENDTIME}}&step={{STEP}}",
                        "query_category": "time-series",
                        "title": "CPU",
                        "units": "percent",
                        "x_axis_label": "Percentage"
                    },
                    "template": {
                        "enable": "TemplateEnable_ExList"
                    }
                }
            }
        },
        {
            "color": "blue",
            "showOnAxis": true,
            "query": {
                "apiVersion": "fanta.ws.io/v1",
                "kind": "ChartQuery",
                "metadata": {
                    "name": "memory",
                    "namespace": "network"
                },
                "spec": {
                    "base": {},
                    "query_info": {
                        "base_url": "metrics/{{APIGROUP}}/v1/devices/{{OBJNAME}}?range=true&query=avg(memory_used_percentage)&start={{STARTTIME}}&end={{ENDTIME}}&step={{STEP}}",
                        "query_category": "time-series",
                        "title": "Memory",
                        "units": "percent",
                        "x_axis_label": "Percentage"
                    },
                    "template": {
                        "enable": "TemplateEnable_ExList"
                    }
                }
            }
        }
    ],
    "datapointCount": 50,
    "privilege": "network",
    "colorPalette": "fuse",
    "opacity": 1
}
