{
  "x": 0,
  "y": 7,
  "rows": 9,
  "cols": 50,
  "id": "c41c9903-6d76-45ba-8696-3fc3bf948569",
  "title": "Received/Transmit Traffic",
  "chartType": "graph",
  "chartVariant": "bar",
  "chartQueries": [
    {
      "color": "#cddc39",
      "showOnAxis": false,
      "query": {
        "apiVersion": "fanta.ws.io/v1",
        "kind": "ChartQuery",
        "metadata": {
          "name": "rx-traffic",
          "namespace": "network"
        },
        "spec": {
          "base": {},
          "query_info": {
            "base_url": "metrics/{{APIGROUP}}/v1/ifinterfaces/{{OBJNAME}}?range=true&query=rate(in_octets[5m])&start={{STARTTIME}}&end={{ENDTIME}}&step={{STEP}}",
            "query_category": "time-series",
            "title": "Traffic Received",
            "units": "bytes",
            "x_axis_label": "Received Bytes"
          },
          "template": {
            "enable": "TemplateEnable_ExList"
          }
        }
      }
    },
    {
      "color": "#ef534f",
      "showOnAxis": true,
      "query": {
        "apiVersion": "fanta.ws.io/v1",
        "kind": "ChartQuery",
        "metadata": {
          "name": "tx-traffic",
          "namespace": "network"
        },
        "spec": {
          "base": {},
          "query_info": {
            "base_url": "metrics/{{APIGROUP}}/v1/ifinterfaces/{{OBJNAME}}?range=true&query=rate(out_octets[5m])&start={{STARTTIME}}&end={{ENDTIME}}&step={{STEP}}",
            "query_category": "time-series",
            "title": "Uplink Transmitted",
            "units": "bytes",
            "x_axis_label": "Received Bytes"
          },
          "template": {
            "enable": "TemplateEnable_ExList"
          }
        }
      }
    }
  ],
  "privilege": "network",
  "colorPalette": "fuse",
  "resizeEnabled": false,
  "dragEnabled": false,
  "datapointCount": 50
}
