<svg xmlns="http://www.w3.org/2000/svg" width="24" height="24" viewBox="0 0 24 24">
    <g fill="none" fill-rule="evenodd" stroke-linecap="round" stroke-linejoin="round">
        <g stroke="#666" stroke-width="2">
            <g>
                <g>
                    <path d="M17.605 6.322L6.395 17.532M6.395 6.322L17.605 17.532" transform="translate(-1876 -18) translate(60) translate(1816 18)"/>
                </g>
            </g>
        </g>
    </g>
</svg>
